2018-09-01 23:33:27,373 ERROR: Exception on /edit_profile [GET] [in c:\microblog\microblog\lib\site-packages\flask\app.py:1761]
Traceback (most recent call last):
  File "c:\microblog\microblog\lib\site-packages\flask\app.py", line 2292, in wsgi_app
    response = self.full_dispatch_request()
  File "c:\microblog\microblog\lib\site-packages\flask\app.py", line 1815, in full_dispatch_request
    rv = self.handle_user_exception(e)
  File "c:\microblog\microblog\lib\site-packages\flask\app.py", line 1718, in handle_user_exception
    reraise(exc_type, exc_value, tb)
  File "c:\microblog\microblog\lib\site-packages\flask\_compat.py", line 35, in reraise
    raise value
  File "c:\microblog\microblog\lib\site-packages\flask\app.py", line 1813, in full_dispatch_request
    rv = self.dispatch_request()
  File "c:\microblog\microblog\lib\site-packages\flask\app.py", line 1799, in dispatch_request
    return self.view_functions[rule.endpoint](**req.view_args)
  File "c:\microblog\microblog\lib\site-packages\flask_login\utils.py", line 261, in decorated_view
    return func(*args, **kwargs)
  File "C:\trackedroute\app\routes.py", line 101, in edit_profile
    form = EditProfileForm(current_user.username)
  File "c:\microblog\microblog\lib\site-packages\wtforms\form.py", line 212, in __call__
    return type.__call__(cls, *args, **kwargs)
  File "C:\trackedroute\app\forms.py", line 43, in __init__
    super(EditProfileForm, self).__init__(*args, **kwargs)
  File "c:\microblog\microblog\lib\site-packages\flask_wtf\form.py", line 88, in __init__
    super(FlaskForm, self).__init__(formdata=formdata, **kwargs)
  File "c:\microblog\microblog\lib\site-packages\wtforms\form.py", line 272, in __init__
    super(Form, self).__init__(self._unbound_fields, meta=meta_obj, prefix=prefix)
  File "c:\microblog\microblog\lib\site-packages\wtforms\form.py", line 52, in __init__
    field = meta.bind_field(self, unbound_field, options)
  File "c:\microblog\microblog\lib\site-packages\wtforms\meta.py", line 27, in bind_field
    return unbound_field.bind(form=form, **options)
  File "c:\microblog\microblog\lib\site-packages\wtforms\fields\core.py", line 353, in bind
    return self.field_class(*self.args, **kw)
  File "c:\microblog\microblog\lib\site-packages\wtforms\fields\core.py", line 702, in __init__
    super(BooleanField, self).__init__(label, validators, **kwargs)
TypeError: __init__() got an unexpected keyword argument 'onclick'
2018-09-01 23:35:45,956 INFO: Microblog startup [in C:\trackedroute\app\__init__.py:59]
2018-09-01 23:35:47,517 ERROR: Exception on /edit_profile [GET] [in c:\microblog\microblog\lib\site-packages\flask\app.py:1761]
Traceback (most recent call last):
  File "c:\microblog\microblog\lib\site-packages\flask\app.py", line 2292, in wsgi_app
    response = self.full_dispatch_request()
  File "c:\microblog\microblog\lib\site-packages\flask\app.py", line 1815, in full_dispatch_request
    rv = self.handle_user_exception(e)
  File "c:\microblog\microblog\lib\site-packages\flask\app.py", line 1718, in handle_user_exception
    reraise(exc_type, exc_value, tb)
  File "c:\microblog\microblog\lib\site-packages\flask\_compat.py", line 35, in reraise
    raise value
  File "c:\microblog\microblog\lib\site-packages\flask\app.py", line 1813, in full_dispatch_request
    rv = self.dispatch_request()
  File "c:\microblog\microblog\lib\site-packages\flask\app.py", line 1799, in dispatch_request
    return self.view_functions[rule.endpoint](**req.view_args)
  File "c:\microblog\microblog\lib\site-packages\flask_login\utils.py", line 261, in decorated_view
    return func(*args, **kwargs)
  File "C:\trackedroute\app\routes.py", line 111, in edit_profile
    form.back.data = request.referrer
AttributeError: 'EditProfileForm' object has no attribute 'back'
2018-09-01 23:36:15,327 INFO: Microblog startup [in C:\trackedroute\app\__init__.py:59]
2018-09-01 23:36:48,851 INFO: Microblog startup [in C:\trackedroute\app\__init__.py:59]
2018-09-01 23:37:46,194 INFO: Microblog startup [in C:\trackedroute\app\__init__.py:59]
2018-09-01 23:40:45,085 INFO: Microblog startup [in C:\trackedroute\app\__init__.py:59]
2018-09-01 23:43:14,762 INFO: Microblog startup [in C:\trackedroute\app\__init__.py:59]
2018-09-01 23:45:12,726 INFO: Microblog startup [in C:\trackedroute\app\__init__.py:59]
2018-09-01 23:46:28,983 INFO: Microblog startup [in C:\trackedroute\app\__init__.py:59]
2018-09-01 23:47:23,394 INFO: Microblog startup [in C:\trackedroute\app\__init__.py:59]
2018-09-01 23:48:35,458 INFO: Microblog startup [in C:\trackedroute\app\__init__.py:59]
2018-09-01 23:50:14,301 INFO: Microblog startup [in C:\trackedroute\app\__init__.py:59]
2018-09-01 23:52:07,804 INFO: Microblog startup [in C:\trackedroute\app\__init__.py:59]
2018-09-01 23:54:29,837 INFO: Microblog startup [in C:\trackedroute\app\__init__.py:59]
2018-09-02 12:42:22,181 INFO: Microblog startup [in C:\trackedroute\app\__init__.py:59]
2018-09-02 13:12:02,444 INFO: Microblog startup [in C:\trackedroute\app\__init__.py:59]
2018-09-02 13:13:37,130 INFO: Microblog startup [in C:\trackedroute\app\__init__.py:59]
2018-09-02 13:13:45,226 INFO: Microblog startup [in C:\trackedroute\app\__init__.py:59]
2018-09-02 13:13:57,924 INFO: Microblog startup [in C:\trackedroute\app\__init__.py:59]
2018-09-02 13:18:06,450 INFO: Microblog startup [in C:\trackedroute\app\__init__.py:59]
2018-09-02 13:18:09,629 INFO: Microblog startup [in C:\trackedroute\app\__init__.py:59]
2018-09-02 13:19:28,283 INFO: Microblog startup [in C:\trackedroute\app\__init__.py:59]
2018-09-02 13:19:37,459 INFO: Microblog startup [in C:\trackedroute\app\__init__.py:59]
2018-09-02 13:20:45,161 INFO: Microblog startup [in C:\trackedroute\app\__init__.py:59]
2018-09-02 13:21:31,172 INFO: Microblog startup [in C:\trackedroute\app\__init__.py:59]
2018-09-02 13:21:35,119 INFO: Microblog startup [in C:\trackedroute\app\__init__.py:59]
2018-09-02 13:24:54,109 INFO: Microblog startup [in C:\trackedroute\app\__init__.py:59]
2018-09-02 13:25:13,692 INFO: Microblog startup [in C:\trackedroute\app\__init__.py:59]
2018-09-02 13:25:51,565 INFO: Microblog startup [in C:\trackedroute\app\__init__.py:59]
2018-09-02 13:33:05,308 INFO: Microblog startup [in C:\trackedroute\app\__init__.py:59]
2018-09-02 13:33:11,740 INFO: Microblog startup [in C:\trackedroute\app\__init__.py:59]
2018-09-02 13:35:18,718 INFO: Microblog startup [in C:\trackedroute\app\__init__.py:59]
2018-09-02 13:35:22,587 INFO: Microblog startup [in C:\trackedroute\app\__init__.py:59]
2018-09-02 13:36:07,137 INFO: Microblog startup [in C:\trackedroute\app\__init__.py:59]
2018-09-02 13:36:26,119 INFO: Microblog startup [in C:\trackedroute\app\__init__.py:59]
2018-09-02 13:40:48,861 INFO: Microblog startup [in C:\trackedroute\app\__init__.py:59]
2018-09-02 13:41:59,688 INFO: Microblog startup [in C:\trackedroute\app\__init__.py:59]
2018-09-02 13:42:53,201 INFO: Microblog startup [in C:\trackedroute\app\__init__.py:59]
2018-09-02 13:43:13,159 INFO: Microblog startup [in C:\trackedroute\app\__init__.py:59]
2018-09-02 13:47:04,929 INFO: Microblog startup [in C:\trackedroute\app\__init__.py:59]
2018-09-02 13:47:08,000 INFO: Microblog startup [in C:\trackedroute\app\__init__.py:59]
2018-09-02 13:48:01,560 INFO: Microblog startup [in C:\trackedroute\app\__init__.py:59]
2018-09-02 13:48:30,389 INFO: Microblog startup [in C:\trackedroute\app\__init__.py:59]
2018-09-02 13:48:55,866 INFO: Microblog startup [in C:\trackedroute\app\__init__.py:59]
2018-09-02 13:49:01,810 INFO: Microblog startup [in C:\trackedroute\app\__init__.py:59]
2018-09-02 13:53:16,709 INFO: Microblog startup [in C:\trackedroute\app\__init__.py:59]
2018-09-02 13:53:23,247 INFO: Microblog startup [in C:\trackedroute\app\__init__.py:59]
2018-09-02 13:53:49,735 INFO: Microblog startup [in C:\trackedroute\app\__init__.py:59]
2018-09-02 13:56:52,865 INFO: Microblog startup [in C:\trackedroute\app\__init__.py:59]
2018-09-02 14:03:55,813 INFO: Microblog startup [in C:\trackedroute\app\__init__.py:59]
2018-09-02 14:06:50,772 INFO: Microblog startup [in C:\trackedroute\app\__init__.py:59]
2018-09-02 14:06:52,332 ERROR: Exception on /index [GET] [in c:\microblog\microblog\lib\site-packages\flask\app.py:1761]
Traceback (most recent call last):
  File "c:\microblog\microblog\lib\site-packages\flask\app.py", line 2292, in wsgi_app
    response = self.full_dispatch_request()
  File "c:\microblog\microblog\lib\site-packages\flask\app.py", line 1815, in full_dispatch_request
    rv = self.handle_user_exception(e)
  File "c:\microblog\microblog\lib\site-packages\flask\app.py", line 1718, in handle_user_exception
    reraise(exc_type, exc_value, tb)
  File "c:\microblog\microblog\lib\site-packages\flask\_compat.py", line 35, in reraise
    raise value
  File "c:\microblog\microblog\lib\site-packages\flask\app.py", line 1813, in full_dispatch_request
    rv = self.dispatch_request()
  File "c:\microblog\microblog\lib\site-packages\flask\app.py", line 1799, in dispatch_request
    return self.view_functions[rule.endpoint](**req.view_args)
  File "C:\trackedroute\app\routes.py", line 85, in index
    return render_template('index.html', title='Home', posts=posts, form=form, group=current_user.group)
  File "c:\microblog\microblog\lib\site-packages\werkzeug\local.py", line 347, in __getattr__
    return getattr(self._get_current_object(), name)
AttributeError: 'AnonymousUserMixin' object has no attribute 'group'
2018-09-02 14:07:53,020 INFO: Microblog startup [in C:\trackedroute\app\__init__.py:59]
