2018-09-01 13:01:47,215 INFO: Microblog startup [in C:\trackedroute\app\__init__.py:59]
2018-09-01 13:18:06,653 INFO: Microblog startup [in C:\trackedroute\app\__init__.py:59]
2018-09-01 19:06:29,321 INFO: Microblog startup [in C:\trackedroute\app\__init__.py:59]
2018-09-01 19:08:09,788 INFO: Microblog startup [in C:\trackedroute\app\__init__.py:59]
2018-09-01 19:10:29,540 INFO: Microblog startup [in C:\trackedroute\app\__init__.py:59]
2018-09-01 19:13:40,209 INFO: Microblog startup [in C:\trackedroute\app\__init__.py:59]
2018-09-01 19:14:57,893 INFO: Microblog startup [in C:\trackedroute\app\__init__.py:59]
2018-09-01 19:16:25,152 INFO: Microblog startup [in C:\trackedroute\app\__init__.py:59]
2018-09-01 19:17:59,123 INFO: Microblog startup [in C:\trackedroute\app\__init__.py:59]
2018-09-01 20:08:32,189 INFO: Microblog startup [in C:\trackedroute\app\__init__.py:59]
2018-09-01 20:08:38,365 ERROR: Exception on /edit_profile [GET] [in c:\microblog\microblog\lib\site-packages\flask\app.py:1761]
Traceback (most recent call last):
  File "c:\microblog\microblog\lib\site-packages\flask\app.py", line 2292, in wsgi_app
    response = self.full_dispatch_request()
  File "c:\microblog\microblog\lib\site-packages\flask\app.py", line 1815, in full_dispatch_request
    rv = self.handle_user_exception(e)
  File "c:\microblog\microblog\lib\site-packages\flask\app.py", line 1718, in handle_user_exception
    reraise(exc_type, exc_value, tb)
  File "c:\microblog\microblog\lib\site-packages\flask\_compat.py", line 35, in reraise
    raise value
  File "c:\microblog\microblog\lib\site-packages\flask\app.py", line 1813, in full_dispatch_request
    rv = self.dispatch_request()
  File "c:\microblog\microblog\lib\site-packages\flask\app.py", line 1799, in dispatch_request
    return self.view_functions[rule.endpoint](**req.view_args)
  File "c:\microblog\microblog\lib\site-packages\flask_login\utils.py", line 261, in decorated_view
    return func(*args, **kwargs)
  File "C:\trackedroute\app\routes.py", line 112, in edit_profile
    form.password.data = current_user.password
  File "c:\microblog\microblog\lib\site-packages\werkzeug\local.py", line 347, in __getattr__
    return getattr(self._get_current_object(), name)
AttributeError: 'User' object has no attribute 'password'
2018-09-01 20:12:37,873 INFO: Microblog startup [in C:\trackedroute\app\__init__.py:59]
2018-09-01 20:12:39,104 ERROR: Exception on /edit_profile [GET] [in c:\microblog\microblog\lib\site-packages\flask\app.py:1761]
Traceback (most recent call last):
  File "c:\microblog\microblog\lib\site-packages\flask\app.py", line 2292, in wsgi_app
    response = self.full_dispatch_request()
  File "c:\microblog\microblog\lib\site-packages\flask\app.py", line 1815, in full_dispatch_request
    rv = self.handle_user_exception(e)
  File "c:\microblog\microblog\lib\site-packages\flask\app.py", line 1718, in handle_user_exception
    reraise(exc_type, exc_value, tb)
  File "c:\microblog\microblog\lib\site-packages\flask\_compat.py", line 35, in reraise
    raise value
  File "c:\microblog\microblog\lib\site-packages\flask\app.py", line 1813, in full_dispatch_request
    rv = self.dispatch_request()
  File "c:\microblog\microblog\lib\site-packages\flask\app.py", line 1799, in dispatch_request
    return self.view_functions[rule.endpoint](**req.view_args)
  File "c:\microblog\microblog\lib\site-packages\flask_login\utils.py", line 261, in decorated_view
    return func(*args, **kwargs)
  File "C:\trackedroute\app\routes.py", line 112, in edit_profile
    form.password.data = ''
AttributeError: 'EditProfileForm' object has no attribute 'password'
2018-09-01 20:19:47,794 INFO: Microblog startup [in C:\trackedroute\app\__init__.py:59]
2018-09-01 20:21:50,041 ERROR: Exception on /edit_profile [POST] [in c:\microblog\microblog\lib\site-packages\flask\app.py:1761]
Traceback (most recent call last):
  File "c:\microblog\microblog\lib\site-packages\flask\app.py", line 2292, in wsgi_app
    response = self.full_dispatch_request()
  File "c:\microblog\microblog\lib\site-packages\flask\app.py", line 1815, in full_dispatch_request
    rv = self.handle_user_exception(e)
  File "c:\microblog\microblog\lib\site-packages\flask\app.py", line 1718, in handle_user_exception
    reraise(exc_type, exc_value, tb)
  File "c:\microblog\microblog\lib\site-packages\flask\_compat.py", line 35, in reraise
    raise value
  File "c:\microblog\microblog\lib\site-packages\flask\app.py", line 1813, in full_dispatch_request
    rv = self.dispatch_request()
  File "c:\microblog\microblog\lib\site-packages\flask\app.py", line 1799, in dispatch_request
    return self.view_functions[rule.endpoint](**req.view_args)
  File "c:\microblog\microblog\lib\site-packages\flask_login\utils.py", line 261, in decorated_view
    return func(*args, **kwargs)
  File "C:\trackedroute\app\routes.py", line 106, in edit_profile
    user.set_password(form.password.data)
AttributeError: 'function' object has no attribute 'set_password'
2018-09-01 20:22:33,519 INFO: Microblog startup [in C:\trackedroute\app\__init__.py:59]
2018-09-01 20:22:51,349 ERROR: Exception on /edit_profile [POST] [in c:\microblog\microblog\lib\site-packages\flask\app.py:1761]
Traceback (most recent call last):
  File "c:\microblog\microblog\lib\site-packages\flask\app.py", line 2292, in wsgi_app
    response = self.full_dispatch_request()
  File "c:\microblog\microblog\lib\site-packages\flask\app.py", line 1815, in full_dispatch_request
    rv = self.handle_user_exception(e)
  File "c:\microblog\microblog\lib\site-packages\flask\app.py", line 1718, in handle_user_exception
    reraise(exc_type, exc_value, tb)
  File "c:\microblog\microblog\lib\site-packages\flask\_compat.py", line 35, in reraise
    raise value
  File "c:\microblog\microblog\lib\site-packages\flask\app.py", line 1813, in full_dispatch_request
    rv = self.dispatch_request()
  File "c:\microblog\microblog\lib\site-packages\flask\app.py", line 1799, in dispatch_request
    return self.view_functions[rule.endpoint](**req.view_args)
  File "c:\microblog\microblog\lib\site-packages\flask_login\utils.py", line 261, in decorated_view
    return func(*args, **kwargs)
  File "C:\trackedroute\app\routes.py", line 106, in edit_profile
    User.set_password(form.password.data)
TypeError: set_password() missing 1 required positional argument: 'password'
2018-09-01 20:26:38,288 INFO: Microblog startup [in C:\trackedroute\app\__init__.py:59]
2018-09-01 20:28:39,633 INFO: Microblog startup [in C:\trackedroute\app\__init__.py:59]
2018-09-01 20:30:51,913 INFO: Microblog startup [in C:\trackedroute\app\__init__.py:59]
2018-09-01 20:31:14,675 ERROR: Exception on /edit_profile [POST] [in c:\microblog\microblog\lib\site-packages\flask\app.py:1761]
Traceback (most recent call last):
  File "c:\microblog\microblog\lib\site-packages\flask\app.py", line 2292, in wsgi_app
    response = self.full_dispatch_request()
  File "c:\microblog\microblog\lib\site-packages\flask\app.py", line 1815, in full_dispatch_request
    rv = self.handle_user_exception(e)
  File "c:\microblog\microblog\lib\site-packages\flask\app.py", line 1718, in handle_user_exception
    reraise(exc_type, exc_value, tb)
  File "c:\microblog\microblog\lib\site-packages\flask\_compat.py", line 35, in reraise
    raise value
  File "c:\microblog\microblog\lib\site-packages\flask\app.py", line 1813, in full_dispatch_request
    rv = self.dispatch_request()
  File "c:\microblog\microblog\lib\site-packages\flask\app.py", line 1799, in dispatch_request
    return self.view_functions[rule.endpoint](**req.view_args)
  File "c:\microblog\microblog\lib\site-packages\flask_login\utils.py", line 261, in decorated_view
    return func(*args, **kwargs)
  File "C:\trackedroute\app\routes.py", line 106, in edit_profile
    User.set_password(password=form.password.data)
TypeError: set_password() missing 1 required positional argument: 'self'
2018-09-01 20:33:38,079 INFO: Microblog startup [in C:\trackedroute\app\__init__.py:59]
2018-09-01 20:38:05,417 INFO: Microblog startup [in C:\trackedroute\app\__init__.py:59]
2018-09-01 20:41:05,655 INFO: Microblog startup [in C:\trackedroute\app\__init__.py:59]
2018-09-01 20:55:06,268 INFO: Microblog startup [in C:\trackedroute\app\__init__.py:59]
2018-09-01 20:59:39,470 INFO: Microblog startup [in C:\trackedroute\app\__init__.py:59]
2018-09-01 21:09:59,817 INFO: Microblog startup [in C:\trackedroute\app\__init__.py:59]
2018-09-01 21:11:50,843 INFO: Microblog startup [in C:\trackedroute\app\__init__.py:59]
2018-09-01 21:17:59,873 INFO: Microblog startup [in C:\trackedroute\app\__init__.py:59]
2018-09-01 21:19:09,284 INFO: Microblog startup [in C:\trackedroute\app\__init__.py:59]
