2018-09-01 21:19:11,259 ERROR: Exception on /edit_pw [GET] [in c:\microblog\microblog\lib\site-packages\flask\app.py:1761]
Traceback (most recent call last):
  File "c:\microblog\microblog\lib\site-packages\flask\app.py", line 2292, in wsgi_app
    response = self.full_dispatch_request()
  File "c:\microblog\microblog\lib\site-packages\flask\app.py", line 1815, in full_dispatch_request
    rv = self.handle_user_exception(e)
  File "c:\microblog\microblog\lib\site-packages\flask\app.py", line 1718, in handle_user_exception
    reraise(exc_type, exc_value, tb)
  File "c:\microblog\microblog\lib\site-packages\flask\_compat.py", line 35, in reraise
    raise value
  File "c:\microblog\microblog\lib\site-packages\flask\app.py", line 1813, in full_dispatch_request
    rv = self.dispatch_request()
  File "c:\microblog\microblog\lib\site-packages\flask\app.py", line 1799, in dispatch_request
    return self.view_functions[rule.endpoint](**req.view_args)
  File "c:\microblog\microblog\lib\site-packages\flask_login\utils.py", line 261, in decorated_view
    return func(*args, **kwargs)
  File "C:\trackedroute\app\routes.py", line 125, in edit_pw
    return render_template('edit_pw.html', title='Edit Profile', form=form)
  File "c:\microblog\microblog\lib\site-packages\flask\templating.py", line 135, in render_template
    context, ctx.app)
  File "c:\microblog\microblog\lib\site-packages\flask\templating.py", line 117, in _render
    rv = template.render(context)
  File "c:\microblog\microblog\lib\site-packages\jinja2\asyncsupport.py", line 76, in render
    return original_render(self, *args, **kwargs)
  File "c:\microblog\microblog\lib\site-packages\jinja2\environment.py", line 1008, in render
    return self.environment.handle_exception(exc_info, True)
  File "c:\microblog\microblog\lib\site-packages\jinja2\environment.py", line 780, in handle_exception
    reraise(exc_type, exc_value, tb)
  File "c:\microblog\microblog\lib\site-packages\jinja2\_compat.py", line 37, in reraise
    raise value.with_traceback(tb)
  File "C:\trackedroute\app\templates\edit_pw.html", line 1, in top-level template code
    {% extends "base.html" %}
  File "C:\trackedroute\app\templates\base.html", line 1, in top-level template code
    {% extends 'bootstrap/base.html' %}
  File "c:\microblog\microblog\lib\site-packages\flask_bootstrap\templates\bootstrap\base.html", line 1, in top-level template code
    {% block doc -%}
  File "c:\microblog\microblog\lib\site-packages\flask_bootstrap\templates\bootstrap\base.html", line 4, in block "doc"
    {%- block html %}
  File "c:\microblog\microblog\lib\site-packages\flask_bootstrap\templates\bootstrap\base.html", line 25, in block "html"
    {% block body -%}
  File "c:\microblog\microblog\lib\site-packages\flask_bootstrap\templates\bootstrap\base.html", line 28, in block "body"
    {% block content -%}
  File "C:\trackedroute\app\templates\base.html", line 23, in block "content"
    {% block app_content %}
  File "C:\trackedroute\app\templates\edit_pw.html", line 7, in block "app_content"
    {{ wtf.quick_form(form, button_map={'submit': 'secondary'}) }}
  File "c:\microblog\microblog\lib\site-packages\jinja2\environment.py", line 430, in getattr
    return getattr(obj, attribute)
jinja2.exceptions.UndefinedError: 'wtf' is undefined
2018-09-01 21:20:55,417 INFO: Microblog startup [in C:\trackedroute\app\__init__.py:59]
2018-09-01 21:21:22,622 INFO: Microblog startup [in C:\trackedroute\app\__init__.py:59]
2018-09-01 21:24:27,720 INFO: Microblog startup [in C:\trackedroute\app\__init__.py:59]
2018-09-01 21:29:41,733 INFO: Microblog startup [in C:\trackedroute\app\__init__.py:59]
2018-09-01 21:31:16,482 INFO: Microblog startup [in C:\trackedroute\app\__init__.py:59]
2018-09-01 21:32:05,385 INFO: Microblog startup [in C:\trackedroute\app\__init__.py:59]
2018-09-01 21:36:23,882 INFO: Microblog startup [in C:\trackedroute\app\__init__.py:59]
2018-09-01 21:37:19,699 INFO: Microblog startup [in C:\trackedroute\app\__init__.py:59]
2018-09-01 21:37:48,089 INFO: Microblog startup [in C:\trackedroute\app\__init__.py:59]
2018-09-01 21:41:03,123 INFO: Microblog startup [in C:\trackedroute\app\__init__.py:59]
2018-09-01 22:03:06,325 INFO: Microblog startup [in C:\trackedroute\app\__init__.py:59]
2018-09-01 22:06:26,449 INFO: Microblog startup [in C:\trackedroute\app\__init__.py:59]
2018-09-01 22:08:17,016 INFO: Microblog startup [in C:\trackedroute\app\__init__.py:59]
2018-09-01 22:09:30,038 INFO: Microblog startup [in C:\trackedroute\app\__init__.py:59]
2018-09-01 22:11:05,277 INFO: Microblog startup [in C:\trackedroute\app\__init__.py:59]
2018-09-01 22:11:34,627 INFO: Microblog startup [in C:\trackedroute\app\__init__.py:59]
2018-09-01 22:12:35,726 INFO: Microblog startup [in C:\trackedroute\app\__init__.py:59]
2018-09-01 22:13:44,258 INFO: Microblog startup [in C:\trackedroute\app\__init__.py:59]
2018-09-01 22:19:38,031 INFO: Microblog startup [in C:\trackedroute\app\__init__.py:59]
2018-09-01 22:33:19,707 INFO: Microblog startup [in C:\trackedroute\app\__init__.py:59]
2018-09-01 22:37:19,784 INFO: Microblog startup [in C:\trackedroute\app\__init__.py:59]
2018-09-01 22:37:29,713 INFO: Microblog startup [in C:\trackedroute\app\__init__.py:59]
2018-09-01 22:38:24,998 INFO: Microblog startup [in C:\trackedroute\app\__init__.py:59]
2018-09-01 23:06:28,278 INFO: Microblog startup [in C:\trackedroute\app\__init__.py:59]
2018-09-01 23:09:02,429 INFO: Microblog startup [in C:\trackedroute\app\__init__.py:59]
2018-09-01 23:10:51,386 INFO: Microblog startup [in C:\trackedroute\app\__init__.py:59]
2018-09-01 23:13:14,757 INFO: Microblog startup [in C:\trackedroute\app\__init__.py:59]
2018-09-01 23:13:21,321 ERROR: Exception on /edit_profile [POST] [in c:\microblog\microblog\lib\site-packages\flask\app.py:1761]
Traceback (most recent call last):
  File "c:\microblog\microblog\lib\site-packages\flask\app.py", line 2292, in wsgi_app
    response = self.full_dispatch_request()
  File "c:\microblog\microblog\lib\site-packages\flask\app.py", line 1815, in full_dispatch_request
    rv = self.handle_user_exception(e)
  File "c:\microblog\microblog\lib\site-packages\flask\app.py", line 1718, in handle_user_exception
    reraise(exc_type, exc_value, tb)
  File "c:\microblog\microblog\lib\site-packages\flask\_compat.py", line 35, in reraise
    raise value
  File "c:\microblog\microblog\lib\site-packages\flask\app.py", line 1813, in full_dispatch_request
    rv = self.dispatch_request()
  File "c:\microblog\microblog\lib\site-packages\flask\app.py", line 1799, in dispatch_request
    return self.view_functions[rule.endpoint](**req.view_args)
  File "c:\microblog\microblog\lib\site-packages\flask_login\utils.py", line 261, in decorated_view
    return func(*args, **kwargs)
  File "C:\trackedroute\app\routes.py", line 107, in edit_profile
    return redirect(url_for('user'))
  File "c:\microblog\microblog\lib\site-packages\flask\helpers.py", line 356, in url_for
    return appctx.app.handle_url_build_error(error, endpoint, values)
  File "c:\microblog\microblog\lib\site-packages\flask\app.py", line 2061, in handle_url_build_error
    reraise(exc_type, exc_value, tb)
  File "c:\microblog\microblog\lib\site-packages\flask\_compat.py", line 35, in reraise
    raise value
  File "c:\microblog\microblog\lib\site-packages\flask\helpers.py", line 345, in url_for
    force_external=external)
  File "c:\microblog\microblog\lib\site-packages\werkzeug\routing.py", line 1776, in build
    raise BuildError(endpoint, values, method, self)
werkzeug.routing.BuildError: Could not build url for endpoint 'user'. Did you forget to specify values ['username']?
2018-09-01 23:15:12,908 INFO: Microblog startup [in C:\trackedroute\app\__init__.py:59]
2018-09-01 23:15:50,987 INFO: Microblog startup [in C:\trackedroute\app\__init__.py:59]
2018-09-01 23:26:22,295 INFO: Microblog startup [in C:\trackedroute\app\__init__.py:59]
2018-09-01 23:26:23,133 ERROR: Exception on /edit_profile [GET] [in c:\microblog\microblog\lib\site-packages\flask\app.py:1761]
Traceback (most recent call last):
  File "c:\microblog\microblog\lib\site-packages\flask\app.py", line 2292, in wsgi_app
    response = self.full_dispatch_request()
  File "c:\microblog\microblog\lib\site-packages\flask\app.py", line 1815, in full_dispatch_request
    rv = self.handle_user_exception(e)
  File "c:\microblog\microblog\lib\site-packages\flask\app.py", line 1718, in handle_user_exception
    reraise(exc_type, exc_value, tb)
  File "c:\microblog\microblog\lib\site-packages\flask\_compat.py", line 35, in reraise
    raise value
  File "c:\microblog\microblog\lib\site-packages\flask\app.py", line 1813, in full_dispatch_request
    rv = self.dispatch_request()
  File "c:\microblog\microblog\lib\site-packages\flask\app.py", line 1799, in dispatch_request
    return self.view_functions[rule.endpoint](**req.view_args)
  File "c:\microblog\microblog\lib\site-packages\flask_login\utils.py", line 261, in decorated_view
    return func(*args, **kwargs)
  File "C:\trackedroute\app\routes.py", line 111, in edit_profile
    form.back.data = request.referrer
AttributeError: 'EditProfileForm' object has no attribute 'back'
2018-09-01 23:30:48,539 INFO: Microblog startup [in C:\trackedroute\app\__init__.py:59]
2018-09-01 23:33:19,508 INFO: Microblog startup [in C:\trackedroute\app\__init__.py:59]
